{
  "fluentMethods": true,
  "relationships": [],
  "fields": [
    {
      "fieldName": "label",
      "fieldType": "String",
      "fieldValidateRules": [
        "required"
      ]
    },
    {
      "fieldName": "system",
      "fieldType": "String"
    },
    {
      "fieldName": "code",
      "fieldType": "String"
    },
    {
      "fieldName": "status",
      "fieldType": "String"
    },
    {
      "fieldName": "statusCode",
      "fieldType": "String"
    }
  ],
  "dto": "no",
  "service": "no",
  "entityTableName": "condition",
  "pagination": "no"
}
