{
    "fluentMethods": true,
    "relationships": [],
    "fields": [
        {
            "fieldName": "status",
            "fieldType": "PrivilegeRequestStatus",
            "fieldValues": "PENDING, APPROVED, REJECTED",
            "fieldValidateRules": [
                "required"
            ]
        },
        {
            "fieldName": "created_by",
            "fieldType": "String"
        },
        {
            "fieldName": "updated_by",
            "fieldType": "String"
        },
        {
            "fieldName": "created_at",
            "fieldType": "ZonedDateTime"
        },
        {
            "fieldName": "updated_at",
            "fieldType": "ZonedDateTime"
        }
    ],
    "dto": "no",
    "service": "serviceImpl",
    "entityTableName": "privilege_request",
    "pagination": "pagination"
}
