{
    "fluentMethods": true,
    "relationships": [],
    "fields": [
        {
            "fieldName": "name",
            "fieldType": "String",
            "fieldValidateRules": [
                "required"
            ]
        }
    ],
    "dto": "no",
    "service": "serviceImpl",
    "entityTableName": "role",
    "pagination": "infinite-scroll"
}
