{
  "trial": {
    "properties": {
      "title": {
        "type": "string",
        "analyzer": "nameAnalyzer"
      },
      "briefTitle": {
        "type": "string",
        "analyzer": "nameAnalyzer"
      },
      "status": {
        "type": "string",
        "index": "not_analyzed"
      },
      "type": {
        "type": "string",
        "index": "not_analyzed"
      }
    }
  }
}
